D:\atypon\src\main\java\assignement\atypon\context\TestBase.java
D:\atypon\src\main\java\assignement\atypon\common\pageObjects\CreateAccountPageObject.java
D:\atypon\src\main\java\assignement\atypon\common\pageObjects\MainPageObject.java
D:\atypon\src\main\java\assignement\atypon\common\pageObjects\ResetPasswordPageObject.java
D:\atypon\src\main\java\assignement\atypon\common\logging\GeneralLogger.java
D:\atypon\src\main\java\assignement\atypon\JMeterTestFromCode.java
D:\atypon\src\main\java\assignement\atypon\App.java
D:\atypon\src\main\java\assignement\atypon\common\pageObjects\LoginPageObject.java
