timeStamp,elapsed,label,responseCode,responseMessage,threadName,dataType,success,failureMessage,bytes,sentBytes,grpThreads,allThreads,Latency,IdleTime,Connect
1536995328628,744,open create account page,301,TLS Redirect,test media wiki 1-4,,true,,514,139,20,20,744,0,523
1536995328931,451,open create account page,301,TLS Redirect,test media wiki 1-17,,true,,514,139,20,20,451,0,233
1536995328641,743,open create account page,301,TLS Redirect,test media wiki 1-10,,true,,514,139,20,20,743,0,523
1536995329026,376,open create account page,301,TLS Redirect,test media wiki 1-19,,true,,514,139,20,20,376,0,190
1536995328627,765,open create account page,301,TLS Redirect,test media wiki 1-1,,true,,514,139,20,20,765,0,524
1536995329403,347,open login page,301,TLS Redirect,test media wiki 1-19,,true,,513,138,20,20,347,0,176
1536995328775,1069,open create account page,301,TLS Redirect,test media wiki 1-14,,true,,514,139,20,20,1069,0,389
1536995328978,868,open create account page,301,TLS Redirect,test media wiki 1-18,,true,,514,139,20,20,868,0,186
1536995328628,1257,open create account page,301,TLS Redirect,test media wiki 1-8,,true,,514,139,20,20,1257,0,523
1536995328629,1258,open create account page,301,TLS Redirect,test media wiki 1-6,,true,,514,139,20,20,1258,0,522
1536995329089,913,open create account page,301,TLS Redirect,test media wiki 1-20,,true,,514,139,20,20,913,0,198
1536995329751,416,Open mediawiki homepage,301,TLS Redirect,test media wiki 1-19,,true,,506,131,20,20,416,0,198
1536995329900,409,open login page,301,TLS Redirect,test media wiki 1-8,,true,,513,138,20,20,409,0,186
1536995328628,1768,open create account page,301,TLS Redirect,test media wiki 1-2,,true,,514,139,20,20,1768,0,523
1536995330003,410,open login page,301,TLS Redirect,test media wiki 1-20,,true,,513,138,20,20,410,0,198
1536995328627,1784,open create account page,301,TLS Redirect,test media wiki 1-7,,true,,514,139,20,20,1784,0,524
1536995328652,1773,open create account page,301,TLS Redirect,test media wiki 1-11,,true,,514,139,20,20,1773,0,512
1536995328732,1713,open create account page,301,TLS Redirect,test media wiki 1-13,,true,,514,139,20,20,1713,0,432
1536995328684,1811,open create account page,301,TLS Redirect,test media wiki 1-12,,true,,514,139,20,20,1811,0,480
1536995330409,321,open login page,301,TLS Redirect,test media wiki 1-2,,true,,513,138,20,20,321,0,166
1536995329901,852,open login page,301,TLS Redirect,test media wiki 1-6,,true,,513,138,20,20,852,0,191
1536995330445,356,open login page,301,TLS Redirect,test media wiki 1-13,,true,,513,138,20,20,356,0,187
1536995330496,354,open login page,301,TLS Redirect,test media wiki 1-12,,true,,513,138,20,20,354,0,165
1536995330731,303,Open mediawiki homepage,301,TLS Redirect,test media wiki 1-2,,true,,506,131,20,20,303,0,167
1536995330802,290,Open mediawiki homepage,301,TLS Redirect,test media wiki 1-13,,true,,506,131,20,20,290,0,148
1536995330425,880,open login page,301,TLS Redirect,test media wiki 1-11,,true,,513,138,20,20,880,0,200
1536995331034,299,open create account page,301,TLS Redirect,test media wiki 1-2,,true,,514,139,20,20,299,0,140
1536995330424,938,open login page,301,TLS Redirect,test media wiki 1-7,,true,,513,138,20,20,938,0,201
1536995331093,345,open create account page,301,TLS Redirect,test media wiki 1-13,,true,,514,139,20,20,345,0,179
1536995330753,786,Open mediawiki homepage,301,TLS Redirect,test media wiki 1-6,,true,,506,131,20,20,786,0,151
1536995330850,767,Open mediawiki homepage,301,TLS Redirect,test media wiki 1-12,,true,,506,131,20,20,767,0,122
1536995328628,2981,open create account page,301,TLS Redirect,test media wiki 1-9,,true,,514,139,20,20,2981,0,523
1536995331306,413,Open mediawiki homepage,301,TLS Redirect,test media wiki 1-11,,true,,506,131,20,20,413,0,169
1536995330414,1433,Open mediawiki homepage,301,TLS Redirect,test media wiki 1-20,,true,,506,131,20,20,1433,0,180
1536995331618,386,open create account page,301,TLS Redirect,test media wiki 1-12,,true,,514,139,20,20,386,0,183
1536995331623,391,open login page,301,TLS Redirect,test media wiki 1-9,,true,,513,138,20,20,391,0,181
1536995331540,829,open create account page,301,TLS Redirect,test media wiki 1-6,,true,,514,139,20,20,829,0,201
1536995331439,997,open login page,301,TLS Redirect,test media wiki 1-13,,true,,513,138,20,20,997,0,254
1536995331848,864,open create account page,301,TLS Redirect,test media wiki 1-20,,true,,514,139,20,20,864,0,197
1536995329406,3308,open login page,301,TLS Redirect,test media wiki 1-1,,true,,513,138,20,20,3308,0,3146
1536995329401,3317,open login page,301,TLS Redirect,test media wiki 1-4,,true,,513,138,20,20,3317,0,3151
1536995332437,306,Open mediawiki homepage,301,TLS Redirect,test media wiki 1-13,,true,,506,131,20,20,306,0,154
1536995329403,3703,open login page,301,TLS Redirect,test media wiki 1-17,,true,,513,138,20,20,3703,0,3149
1536995329403,3727,open login page,301,TLS Redirect,test media wiki 1-10,,true,,513,138,20,20,3727,0,3148
1536995329848,3287,open login page,301,TLS Redirect,test media wiki 1-18,,true,,513,138,20,20,3287,0,3142
1536995329845,3319,open login page,301,TLS Redirect,test media wiki 1-14,,true,,513,138,20,20,3319,0,3173
1536995333130,319,Open mediawiki homepage,301,TLS Redirect,test media wiki 1-10,,true,,506,131,20,20,319,0,156
1536995332712,791,open login page,301,TLS Redirect,test media wiki 1-20,,true,,513,138,20,20,791,0,169
1536995332715,790,Open mediawiki homepage,301,TLS Redirect,test media wiki 1-1,,true,,506,131,20,20,790,0,166
1536995330168,3373,open create account page,301,TLS Redirect,test media wiki 1-19,,true,,514,139,20,20,3373,0,3188
1536995333450,386,open create account page,301,TLS Redirect,test media wiki 1-10,,true,,514,139,20,20,386,0,166
1536995333136,785,Open mediawiki homepage,301,TLS Redirect,test media wiki 1-18,,true,,506,131,20,20,785,0,151
1536995333541,396,open login page,301,TLS Redirect,test media wiki 1-19,,true,,513,138,20,20,396,0,195
1536995330309,3653,Open mediawiki homepage,301,TLS Redirect,test media wiki 1-8,,true,,506,131,20,20,3653,0,3199
1536995332719,1309,Open mediawiki homepage,301,TLS Redirect,test media wiki 1-4,,true,,506,131,20,20,1309,0,164
1536995333836,339,open login page,301,TLS Redirect,test media wiki 1-10,,true,,513,138,20,20,339,0,136
1536995333921,316,open create account page,301,TLS Redirect,test media wiki 1-18,,true,,514,139,20,20,316,0,153
1536995334027,335,open create account page,301,TLS Redirect,test media wiki 1-4,,true,,514,139,20,20,335,0,168
1536995333503,873,Open mediawiki homepage,301,TLS Redirect,test media wiki 1-20,,true,,506,131,20,20,873,0,201
1536995333505,888,open create account page,301,TLS Redirect,test media wiki 1-1,,true,,514,139,20,20,888,0,200
1536995334176,300,Open mediawiki homepage,301,TLS Redirect,test media wiki 1-10,,true,,506,131,20,20,300,0,148
1536995334363,299,open login page,301,TLS Redirect,test media wiki 1-4,,true,,513,138,20,20,299,0,133
1536995334375,307,open create account page,301,TLS Redirect,test media wiki 1-20,,true,,514,139,20,20,307,0,134
1536995333937,788,Open mediawiki homepage,301,TLS Redirect,test media wiki 1-19,,true,,506,131,20,20,788,0,154
1536995333961,769,open create account page,301,TLS Redirect,test media wiki 1-8,,true,,514,139,20,20,769,0,156
1536995334477,298,open create account page,301,TLS Redirect,test media wiki 1-10,,true,,514,139,20,20,298,0,135
1536995331333,3596,open login page,301,TLS Redirect,test media wiki 1-2,,true,,513,138,20,20,3596,0,3150
1536995334662,317,Open mediawiki homepage,301,TLS Redirect,test media wiki 1-4,,true,,506,131,20,20,317,0,132
1536995331362,3634,Open mediawiki homepage,301,TLS Redirect,test media wiki 1-7,,true,,506,131,20,20,3634,0,3137
1536995334682,351,open login page,301,TLS Redirect,test media wiki 1-20,,true,,513,138,20,20,351,0,153
1536995334393,807,open login page,301,TLS Redirect,test media wiki 1-1,,true,,513,138,20,20,807,0,162
1536995334928,375,Open mediawiki homepage,301,TLS Redirect,test media wiki 1-2,,true,,506,131,20,20,375,0,196
1536995334980,408,open create account page,301,TLS Redirect,test media wiki 1-4,,true,,514,139,20,20,408,0,208
1536995335034,373,Open mediawiki homepage,301,TLS Redirect,test media wiki 1-20,,true,,506,131,20,20,373,0,172
1536995328628,6817,open create account page,301,TLS Redirect,test media wiki 1-3,,true,,514,139,20,20,6817,0,3620
1536995334775,720,open login page,301,TLS Redirect,test media wiki 1-10,,true,,513,138,20,20,720,0,129
1536995332014,3710,Open mediawiki homepage,301,TLS Redirect,test media wiki 1-9,,true,,506,131,20,20,3710,0,3186
1536995332370,3404,open login page,301,TLS Redirect,test media wiki 1-6,,true,,513,138,20,20,3404,0,3197
1536995335388,425,open login page,301,TLS Redirect,test media wiki 1-4,,true,,513,138,20,20,425,0,203
1536995335408,442,open create account page,301,TLS Redirect,test media wiki 1-20,,true,,514,139,20,20,442,0,230
1536995335200,921,Open mediawiki homepage,301,TLS Redirect,test media wiki 1-1,,true,,506,131,20,20,921,0,203
1536995332743,3414,open create account page,301,TLS Redirect,test media wiki 1-13,,true,,514,139,20,20,3414,0,3204
1536995335814,379,Open mediawiki homepage,301,TLS Redirect,test media wiki 1-4,,true,,506,131,20,20,379,0,185
1536995335304,904,open create account page,301,TLS Redirect,test media wiki 1-2,,true,,514,139,20,20,904,0,201
1536995335851,421,open login page,301,TLS Redirect,test media wiki 1-20,,true,,513,138,20,20,421,0,233
1536995336156,352,open login page,301,TLS Redirect,test media wiki 1-13,,true,,513,138,20,20,352,0,189
1536995333165,3347,Open mediawiki homepage,301,TLS Redirect,test media wiki 1-14,,true,,506,131,20,20,3347,0,3183
1536995333106,3620,Open mediawiki homepage,301,TLS Redirect,test media wiki 1-17,,true,,506,131,20,20,3620,0,3193
1536995336508,284,Open mediawiki homepage,301,TLS Redirect,test media wiki 1-13,,true,,506,131,20,20,284,0,139
1536995336194,739,open create account page,301,TLS Redirect,test media wiki 1-4,,true,,514,139,20,20,739,0,159
1536995336208,753,open login page,301,TLS Redirect,test media wiki 1-2,,true,,513,138,20,20,753,0,153
1536995336121,907,open create account page,301,TLS Redirect,test media wiki 1-1,,true,,514,139,20,20,907,0,204
1536995336725,345,open create account page,301,TLS Redirect,test media wiki 1-17,,true,,514,139,20,20,345,0,150
1536995336792,336,open create account page,301,TLS Redirect,test media wiki 1-13,,true,,514,139,20,20,336,0,177
1536995335774,1435,Open mediawiki homepage,301,TLS Redirect,test media wiki 1-6,,true,,506,131,20,20,1435,0,189
1536995336934,303,open login page,301,TLS Redirect,test media wiki 1-4,,true,,513,138,20,20,303,0,169
1536995336961,291,Open mediawiki homepage,301,TLS Redirect,test media wiki 1-2,,true,,506,131,20,20,291,0,158
1536995337029,351,open login page,301,TLS Redirect,test media wiki 1-1,,true,,513,138,20,20,351,0,151
1536995337071,354,open login page,301,TLS Redirect,test media wiki 1-17,,true,,513,138,20,20,354,0,147
1536995334237,3340,open login page,301,TLS Redirect,test media wiki 1-18,,true,,513,138,20,20,3340,0,3194
1536995337252,404,open create account page,301,TLS Redirect,test media wiki 1-2,,true,,514,139,20,20,404,0,220
1536995336273,1414,Open mediawiki homepage,301,TLS Redirect,test media wiki 1-20,,true,,506,131,20,20,1414,0,181
1536995337381,337,Open mediawiki homepage,301,TLS Redirect,test media wiki 1-1,,true,,506,131,20,20,337,0,163
1536995337426,308,Open mediawiki homepage,301,TLS Redirect,test media wiki 1-17,,true,,506,131,20,20,308,0,145
1536995337657,238,open login page,301,TLS Redirect,test media wiki 1-2,,true,,513,138,20,20,238,0,125
1536995337688,230,open create account page,301,TLS Redirect,test media wiki 1-20,,true,,514,139,20,20,230,0,121
1536995337719,214,open create account page,301,TLS Redirect,test media wiki 1-1,,true,,514,139,20,20,214,0,123
1536995334730,3215,open login page,301,TLS Redirect,test media wiki 1-8,,true,,513,138,20,20,3215,0,3124
1536995334726,3220,open create account page,301,TLS Redirect,test media wiki 1-19,,true,,514,139,20,20,3220,0,3129
1536995337735,234,open create account page,301,TLS Redirect,test media wiki 1-17,,true,,514,139,20,20,234,0,126
1536995337237,834,Open mediawiki homepage,301,TLS Redirect,test media wiki 1-4,,true,,506,131,20,20,834,0,196
1536995337895,212,Open mediawiki homepage,301,TLS Redirect,test media wiki 1-2,,true,,506,131,20,20,212,0,99
1536995337919,246,open login page,301,TLS Redirect,test media wiki 1-20,,true,,513,138,20,20,246,0,147
1536995337934,244,open login page,301,TLS Redirect,test media wiki 1-1,,true,,513,138,20,20,244,0,137
1536995337946,234,Open mediawiki homepage,301,TLS Redirect,test media wiki 1-8,,true,,506,131,20,20,234,0,136
1536995337946,236,open login page,301,TLS Redirect,test media wiki 1-19,,true,,513,138,20,20,236,0,136
1536995337969,247,open login page,301,TLS Redirect,test media wiki 1-17,,true,,513,138,20,20,247,0,129
1536995334995,3238,open create account page,301,TLS Redirect,test media wiki 1-7,,true,,514,139,20,20,3238,0,3111
1536995328628,9603,open create account page,301,TLS Redirect,test media wiki 1-5,,true,,514,139,20,20,9603,0,9468
1536995328884,9362,open create account page,301,TLS Redirect,test media wiki 1-16,,true,,514,139,20,20,9362,0,9224
1536995328842,9409,open create account page,301,TLS Redirect,test media wiki 1-15,,true,,514,139,20,20,9409,0,9266
1536995337577,754,Open mediawiki homepage,301,TLS Redirect,test media wiki 1-18,,true,,506,131,20,20,754,0,158
1536995338071,268,open create account page,301,TLS Redirect,test media wiki 1-4,,true,,514,139,20,20,268,0,103
1536995337128,1214,open login page,301,TLS Redirect,test media wiki 1-13,,true,,513,138,20,20,1214,0,133
1536995338108,250,open create account page,301,TLS Redirect,test media wiki 1-2,,true,,514,139,20,20,250,0,126
1536995338165,285,Open mediawiki homepage,301,TLS Redirect,test media wiki 1-20,,true,,506,131,20,20,285,0,164
1536995338179,281,Open mediawiki homepage,301,TLS Redirect,test media wiki 1-1,,true,,506,131,20,20,281,0,159
1536995338183,279,Open mediawiki homepage,301,TLS Redirect,test media wiki 1-19,,true,,506,131,20,20,279,0,156
1536995338180,287,open create account page,301,TLS Redirect,test media wiki 1-8,,true,,514,139,20,20,287,0,159
1536995338216,264,Open mediawiki homepage,301,TLS Redirect,test media wiki 1-17,,true,,506,131,20,20,264,0,131
1536995338233,252,open login page,301,TLS Redirect,test media wiki 1-7,,true,,513,138,20,20,252,0,122
1536995338243,256,open login page,301,TLS Redirect,test media wiki 1-5,,true,,513,138,20,20,256,0,120
1536995338251,251,open login page,301,TLS Redirect,test media wiki 1-15,,true,,513,138,20,20,251,0,123
1536995338332,309,open create account page,301,TLS Redirect,test media wiki 1-18,,true,,514,139,20,20,309,0,120
1536995338342,320,Open mediawiki homepage,301,TLS Redirect,test media wiki 1-13,,true,,506,131,20,20,320,0,130
1536995338359,309,open login page,301,TLS Redirect,test media wiki 1-2,,true,,513,138,20,20,309,0,129
1536995338450,285,open create account page,301,TLS Redirect,test media wiki 1-20,,true,,514,139,20,20,285,0,179
1536995338461,299,open create account page,301,TLS Redirect,test media wiki 1-1,,true,,514,139,20,20,299,0,189
1536995338463,298,open create account page,301,TLS Redirect,test media wiki 1-19,,true,,514,139,20,20,298,0,191
1536995338467,296,open login page,301,TLS Redirect,test media wiki 1-8,,true,,513,138,20,20,296,0,189
1536995338481,303,open create account page,301,TLS Redirect,test media wiki 1-17,,true,,514,139,20,20,303,0,184
1536995335495,3294,Open mediawiki homepage,301,TLS Redirect,test media wiki 1-10,,true,,506,131,20,20,3294,0,3174
1536995338499,295,Open mediawiki homepage,301,TLS Redirect,test media wiki 1-5,,true,,506,131,20,20,295,0,173
1536995338503,304,Open mediawiki homepage,301,TLS Redirect,test media wiki 1-15,,true,,506,131,20,20,304,0,171
1536995338245,666,open login page,301,TLS Redirect,test media wiki 1-16,,true,,513,138,20,20,666,0,120
1536995338663,298,open create account page,301,TLS Redirect,test media wiki 1-13,,true,,514,139,20,20,298,0,110
1536995338668,300,Open mediawiki homepage,301,TLS Redirect,test media wiki 1-2,,true,,506,131,20,20,300,0,116
1536995338339,638,open login page,301,TLS Redirect,test media wiki 1-4,,true,,513,138,20,20,638,0,118
1536995338735,300,open login page,301,TLS Redirect,test media wiki 1-20,,true,,513,138,20,20,300,0,195
1536995338760,311,open login page,301,TLS Redirect,test media wiki 1-1,,true,,513,138,20,20,311,0,190
1536995338762,318,open login page,301,TLS Redirect,test media wiki 1-19,,true,,513,138,20,20,318,0,192
1536995338784,308,open login page,301,TLS Redirect,test media wiki 1-17,,true,,513,138,20,20,308,0,182
1536995338789,310,open create account page,301,TLS Redirect,test media wiki 1-10,,true,,514,139,20,20,310,0,180
1536995338794,307,open create account page,301,TLS Redirect,test media wiki 1-5,,true,,514,139,20,20,307,0,177
1536995338807,301,open create account page,301,TLS Redirect,test media wiki 1-15,,true,,514,139,20,20,300,0,171
1536995338912,286,Open mediawiki homepage,301,TLS Redirect,test media wiki 1-16,,true,,506,131,20,20,286,0,109
1536995338961,299,open login page,301,TLS Redirect,test media wiki 1-13,,true,,513,138,20,20,299,0,125
1536995339035,282,Open mediawiki homepage,301,TLS Redirect,test media wiki 1-20,,true,,506,131,20,20,282,0,183
1536995339072,267,Open mediawiki homepage,301,TLS Redirect,test media wiki 1-1,,true,,506,131,20,20,267,0,178
1536995339100,272,open login page,301,TLS Redirect,test media wiki 1-10,,true,,513,138,20,20,272,0,173
1536995339101,281,open login page,301,TLS Redirect,test media wiki 1-5,,true,,513,138,20,20,281,0,175
1536995339199,231,open create account page,301,TLS Redirect,test media wiki 1-16,,true,,514,139,20,20,231,0,107
1536995339260,285,Open mediawiki homepage,301,TLS Redirect,test media wiki 1-13,,true,,506,131,20,20,285,0,90
1536995339317,298,open create account page,301,TLS Redirect,test media wiki 1-20,,true,,514,139,20,20,298,0,129
1536995338978,658,Open mediawiki homepage,301,TLS Redirect,test media wiki 1-4,,true,,506,131,20,20,658,0,128
1536995339382,325,Open mediawiki homepage,301,TLS Redirect,test media wiki 1-5,,true,,506,131,20,20,325,0,188
1536995339430,311,open login page,301,TLS Redirect,test media wiki 1-16,,true,,513,138,20,20,311,0,172
1536995339545,298,open create account page,301,TLS Redirect,test media wiki 1-13,,true,,514,139,20,20,298,0,139
1536995339707,268,open create account page,301,TLS Redirect,test media wiki 1-5,,true,,514,139,20,20,268,0,141
1536995339742,258,Open mediawiki homepage,301,TLS Redirect,test media wiki 1-16,,true,,506,131,20,20,258,0,121
1536995338968,1070,open create account page,301,TLS Redirect,test media wiki 1-2,,true,,514,139,20,20,1070,0,127
1536995339843,312,open login page,301,TLS Redirect,test media wiki 1-13,,true,,513,138,20,20,312,0,117
1536995339340,845,open create account page,301,TLS Redirect,test media wiki 1-1,,true,,514,139,20,20,845,0,183
1536995339372,836,Open mediawiki homepage,301,TLS Redirect,test media wiki 1-10,,true,,506,131,20,20,836,0,186
1536995338641,1592,open login page,301,TLS Redirect,test media wiki 1-18,,true,,513,138,20,20,1592,0,109
1536995339975,324,open login page,301,TLS Redirect,test media wiki 1-5,,true,,513,138,20,20,324,0,192
1536995340001,321,open create account page,301,TLS Redirect,test media wiki 1-16,,true,,514,139,20,20,321,0,185
1536995340040,309,open login page,301,TLS Redirect,test media wiki 1-2,,true,,513,138,20,20,309,0,169
1536995336511,3916,open create account page,301,TLS Redirect,test media wiki 1-14,,true,,514,139,20,20,3916,0,3145
1536995340156,340,Open mediawiki homepage,301,TLS Redirect,test media wiki 1-13,,true,,506,131,20,20,340,0,130
1536995340187,316,open login page,301,TLS Redirect,test media wiki 1-1,,true,,513,138,20,20,316,0,137
1536995340209,330,open create account page,301,TLS Redirect,test media wiki 1-10,,true,,514,139,20,20,330,0,138
1536995337210,3338,open create account page,301,TLS Redirect,test media wiki 1-6,,true,,514,139,20,20,3338,0,3142
1536995340234,331,Open mediawiki homepage,301,TLS Redirect,test media wiki 1-18,,true,,506,131,20,20,331,0,149
1536995340323,303,open login page,301,TLS Redirect,test media wiki 1-16,,true,,513,138,20,20,303,0,177
1536995340349,317,Open mediawiki homepage,301,TLS Redirect,test media wiki 1-2,,true,,506,131,20,20,317,0,190
1536995340496,235,open create account page,301,TLS Redirect,test media wiki 1-13,,true,,514,139,20,20,235,0,117
1536995340503,334,Open mediawiki homepage,301,TLS Redirect,test media wiki 1-1,,true,,506,131,20,20,334,0,130
1536995340539,343,open login page,301,TLS Redirect,test media wiki 1-10,,true,,513,138,20,20,343,0,124
1536995340566,349,open create account page,301,TLS Redirect,test media wiki 1-18,,true,,514,139,20,20,349,0,127
1536995340626,342,Open mediawiki homepage,301,TLS Redirect,test media wiki 1-16,,true,,506,131,20,20,342,0,182
1536995331719,9342,open create account page,301,TLS Redirect,test media wiki 1-11,,true,,514,139,20,20,9342,0,9217
1536995340732,329,open login page,301,TLS Redirect,test media wiki 1-13,,true,,513,138,20,20,329,0,203
1536995340427,769,open login page,301,TLS Redirect,test media wiki 1-14,,true,,513,138,20,20,769,0,139
1536995340882,344,Open mediawiki homepage,301,TLS Redirect,test media wiki 1-10,,true,,506,131,20,20,344,0,127
1536995340916,328,open login page,301,TLS Redirect,test media wiki 1-18,,true,,513,138,20,20,328,0,120
1536995340969,333,open create account page,301,TLS Redirect,test media wiki 1-16,,true,,514,139,20,20,333,0,194
1536995332004,9349,open login page,301,TLS Redirect,test media wiki 1-12,,true,,513,138,20,20,9349,0,9222
1536995341061,337,open login page,301,TLS Redirect,test media wiki 1-11,,true,,513,138,20,20,337,0,209
1536995341196,253,Open mediawiki homepage,301,TLS Redirect,test media wiki 1-14,,true,,506,131,20,20,253,0,126
1536995341245,313,Open mediawiki homepage,301,TLS Redirect,test media wiki 1-18,,true,,506,131,20,20,313,0,120
1536995341303,312,open login page,301,TLS Redirect,test media wiki 1-16,,true,,513,138,20,20,312,0,127
1536995341558,268,open create account page,301,TLS Redirect,test media wiki 1-18,,true,,514,139,20,20,268,0,144
1536995341226,604,open create account page,301,TLS Redirect,test media wiki 1-10,,true,,514,139,20,20,604,0,126
1536995341616,233,Open mediawiki homepage,301,TLS Redirect,test media wiki 1-16,,true,,506,131,20,20,233,0,131
1536995341061,823,Open mediawiki homepage,301,TLS Redirect,test media wiki 1-13,,true,,506,131,20,20,823,0,210
1536995340838,1129,open create account page,301,TLS Redirect,test media wiki 1-1,,true,,514,139,20,20,1129,0,150
1536995338764,3245,Open mediawiki homepage,301,TLS Redirect,test media wiki 1-8,,true,,506,131,20,20,3245,0,3090
1536995341830,253,open login page,301,TLS Redirect,test media wiki 1-10,,true,,513,138,20,20,253,0,129
1536995341849,313,open create account page,301,TLS Redirect,test media wiki 1-16,,true,,514,139,20,20,313,0,140
1536995341884,291,open create account page,301,TLS Redirect,test media wiki 1-13,,true,,514,139,20,20,291,0,152
1536995341399,779,Open mediawiki homepage,301,TLS Redirect,test media wiki 1-11,,true,,506,131,20,20,779,0,185
1536995341967,245,open login page,301,TLS Redirect,test media wiki 1-1,,true,,513,138,20,20,245,0,131
1536995342009,311,open create account page,301,TLS Redirect,test media wiki 1-8,,true,,514,139,20,20,311,0,155
1536995339080,3249,Open mediawiki homepage,301,TLS Redirect,test media wiki 1-19,,true,,506,131,20,20,3249,0,3103
1536995342083,250,Open mediawiki homepage,301,TLS Redirect,test media wiki 1-10,,true,,506,131,20,20,250,0,103
1536995339093,3274,Open mediawiki homepage,301,TLS Redirect,test media wiki 1-17,,true,,506,131,20,20,3274,0,3137
1536995338485,3932,Open mediawiki homepage,301,TLS Redirect,test media wiki 1-7,,true,,506,131,20,20,3932,0,3179
1536995342179,308,open create account page,301,TLS Redirect,test media wiki 1-11,,true,,514,139,20,20,308,0,148
1536995342176,315,open login page,301,TLS Redirect,test media wiki 1-13,,true,,513,138,20,20,315,0,151
1536995342212,292,Open mediawiki homepage,301,TLS Redirect,test media wiki 1-1,,true,,506,131,20,20,292,0,132
1536995339108,3573,open login page,301,TLS Redirect,test media wiki 1-15,,true,,513,138,20,20,3573,0,3123
1536995342487,259,open login page,301,TLS Redirect,test media wiki 1-11,,true,,513,138,20,20,259,0,125
1536995342491,258,Open mediawiki homepage,301,TLS Redirect,test media wiki 1-13,,true,,506,131,20,20,258,0,123
1536995342504,291,open create account page,301,TLS Redirect,test media wiki 1-1,,true,,514,139,20,20,291,0,125
1536995342162,736,open login page,301,TLS Redirect,test media wiki 1-16,,true,,513,138,20,20,736,0,151
1536995339616,3334,open login page,301,TLS Redirect,test media wiki 1-20,,true,,513,138,20,20,3334,0,3137
1536995339636,3359,open create account page,301,TLS Redirect,test media wiki 1-4,,true,,514,139,20,20,3359,0,3174
1536995342681,322,Open mediawiki homepage,301,TLS Redirect,test media wiki 1-15,,true,,506,131,20,20,322,0,152
1536995342418,639,open create account page,301,TLS Redirect,test media wiki 1-7,,true,,514,139,20,20,639,0,125
1536995342747,320,Open mediawiki homepage,301,TLS Redirect,test media wiki 1-11,,true,,506,131,20,20,320,0,179
1536995342334,734,open create account page,301,TLS Redirect,test media wiki 1-10,,true,,514,139,20,20,734,0,158
1536995342329,744,open create account page,301,TLS Redirect,test media wiki 1-19,,true,,514,139,20,20,744,0,162
1536995342795,339,open login page,301,TLS Redirect,test media wiki 1-1,,true,,513,138,20,20,339,0,190
1536995342950,339,Open mediawiki homepage,301,TLS Redirect,test media wiki 1-20,,true,,506,131,20,20,339,0,138
1536995343003,338,open create account page,301,TLS Redirect,test media wiki 1-15,,true,,514,139,20,20,338,0,170
1536995343058,343,open login page,301,TLS Redirect,test media wiki 1-7,,true,,513,138,20,20,343,0,192
1536995343067,354,open create account page,301,TLS Redirect,test media wiki 1-11,,true,,514,139,20,20,354,0,202
1536995343069,362,open login page,301,TLS Redirect,test media wiki 1-10,,true,,513,138,20,20,362,0,202
1536995343073,360,open login page,301,TLS Redirect,test media wiki 1-19,,true,,513,138,20,20,360,0,201
1536995343135,358,Open mediawiki homepage,301,TLS Redirect,test media wiki 1-1,,true,,506,131,20,20,358,0,187
1536995341826,1723,open login page,301,TLS Redirect,test media wiki 1-18,,true,,513,138,20,20,1723,0,116
1536995342750,853,open create account page,301,TLS Redirect,test media wiki 1-13,,true,,514,139,20,20,853,0,183
1536995340299,3340,Open mediawiki homepage,301,TLS Redirect,test media wiki 1-5,,true,,506,131,20,20,3340,0,3176
1536995343342,372,open login page,301,TLS Redirect,test media wiki 1-15,,true,,513,138,20,20,372,0,176
1536995343401,393,Open mediawiki homepage,301,TLS Redirect,test media wiki 1-7,,true,,506,131,20,20,393,0,168
1536995342996,825,open login page,301,TLS Redirect,test media wiki 1-4,,true,,513,138,20,20,825,0,165
1536995343431,407,Open mediawiki homepage,301,TLS Redirect,test media wiki 1-10,,true,,506,131,20,20,407,0,188
1536995343549,393,Open mediawiki homepage,301,TLS Redirect,test media wiki 1-18,,true,,506,131,20,20,393,0,214
1536995343603,380,open login page,301,TLS Redirect,test media wiki 1-13,,true,,513,138,20,20,380,0,218
1536995340548,3437,open login page,301,TLS Redirect,test media wiki 1-6,,true,,513,138,20,20,3437,0,126
1536995343639,358,open create account page,301,TLS Redirect,test media wiki 1-5,,true,,514,139,20,20,358,0,203
1536995340667,3351,open create account page,301,TLS Redirect,test media wiki 1-2,,true,,514,139,20,20,3351,0,3197
1536995343715,362,Open mediawiki homepage,301,TLS Redirect,test media wiki 1-15,,true,,506,131,20,20,362,0,193
1536995343795,378,open create account page,301,TLS Redirect,test media wiki 1-7,,true,,514,139,20,20,378,0,174
1536995343821,366,Open mediawiki homepage,301,TLS Redirect,test media wiki 1-4,,true,,506,131,20,20,366,0,160
1536995343839,364,open create account page,301,TLS Redirect,test media wiki 1-10,,true,,514,139,20,20,364,0,155
1536995343433,837,Open mediawiki homepage,301,TLS Redirect,test media wiki 1-19,,true,,506,131,20,20,837,0,189
1536995343494,812,open create account page,301,TLS Redirect,test media wiki 1-1,,true,,514,139,20,20,812,0,187
1536995343983,353,Open mediawiki homepage,301,TLS Redirect,test media wiki 1-13,,true,,506,131,20,20,353,0,204
1536995343986,363,Open mediawiki homepage,301,TLS Redirect,test media wiki 1-6,,true,,506,131,20,20,363,0,206
1536995344173,359,open login page,301,TLS Redirect,test media wiki 1-7,,true,,513,138,20,20,359,0,149
1536995344271,353,open create account page,301,TLS Redirect,test media wiki 1-19,,true,,514,139,20,20,353,0,155
1536995344306,350,open login page,301,TLS Redirect,test media wiki 1-1,,true,,513,138,20,20,350,0,188
1536995341352,3362,Open mediawiki homepage,301,TLS Redirect,test media wiki 1-12,,true,,506,131,20,20,3362,0,3204
1536995341449,3343,open create account page,301,TLS Redirect,test media wiki 1-14,,true,,514,139,20,20,3343,0,3191
1536995335458,9335,open login page,301,TLS Redirect,test media wiki 1-3,,true,,513,138,20,20,9335,0,9182
1536995344657,308,Open mediawiki homepage,301,TLS Redirect,test media wiki 1-1,,true,,506,131,20,20,308,0,155
1536995335724,9360,open create account page,301,TLS Redirect,test media wiki 1-9,,true,,514,139,20,20,9360,0,9147
1536995344794,361,Open mediawiki homepage,301,TLS Redirect,test media wiki 1-3,,true,,506,131,20,20,361,0,141
1536995344336,911,open create account page,301,TLS Redirect,test media wiki 1-13,,true,,514,139,20,20,911,0,207
1536995342320,3214,open login page,301,TLS Redirect,test media wiki 1-8,,true,,513,138,20,20,3214,0,3129
1536995342368,3194,open create account page,301,TLS Redirect,test media wiki 1-17,,true,,514,139,20,20,3194,0,3111
1536995345535,192,Open mediawiki homepage,301,TLS Redirect,test media wiki 1-8,,true,,506,131,20,20,192,0,83
1536995345563,218,open login page,301,TLS Redirect,test media wiki 1-17,,true,,513,138,20,20,218,0,81
1536995344965,889,open create account page,301,TLS Redirect,test media wiki 1-1,,true,,514,139,20,20,889,0,225
1536995344792,1073,open login page,301,TLS Redirect,test media wiki 1-14,,true,,513,138,20,20,1073,0,134
1536995345155,737,open create account page,301,TLS Redirect,test media wiki 1-3,,true,,514,139,20,20,737,0,166
1536995345728,210,open create account page,301,TLS Redirect,test media wiki 1-8,,true,,514,139,20,20,210,0,120
1536995345782,235,Open mediawiki homepage,301,TLS Redirect,test media wiki 1-17,,true,,506,131,20,20,235,0,121
1536995345854,245,open login page,301,TLS Redirect,test media wiki 1-1,,true,,513,138,20,20,245,0,88
1536995345866,237,Open mediawiki homepage,301,TLS Redirect,test media wiki 1-14,,true,,506,131,20,20,237,0,90
1536995342898,3247,Open mediawiki homepage,301,TLS Redirect,test media wiki 1-16,,true,,506,131,20,20,3247,0,3116
1536995346018,253,open create account page,301,TLS Redirect,test media wiki 1-17,,true,,514,139,20,20,253,0,133
1536995346145,247,open create account page,301,TLS Redirect,test media wiki 1-16,,true,,514,139,20,20,247,0,115
1536995345892,580,open login page,301,TLS Redirect,test media wiki 1-3,,true,,513,138,20,20,580,0,110
1536995346272,289,open login page,301,TLS Redirect,test media wiki 1-17,,true,,513,138,20,20,289,0,136
1536995343289,3318,open create account page,301,TLS Redirect,test media wiki 1-20,,true,,514,139,20,20,3318,0,3126
1536995345938,755,open login page,301,TLS Redirect,test media wiki 1-8,,true,,513,138,20,20,755,0,154
1536995346393,308,open login page,301,TLS Redirect,test media wiki 1-16,,true,,513,138,20,20,308,0,148
1536995346103,621,open create account page,301,TLS Redirect,test media wiki 1-14,,true,,514,139,20,20,621,0,130
1536995346100,677,Open mediawiki homepage,301,TLS Redirect,test media wiki 1-1,,true,,506,131,20,20,677,0,132
1536995346607,291,open login page,301,TLS Redirect,test media wiki 1-20,,true,,513,138,19,19,291,0,127
1536995346702,333,Open mediawiki homepage,301,TLS Redirect,test media wiki 1-16,,true,,506,131,19,19,333,0,175
1536995346725,322,open login page,301,TLS Redirect,test media wiki 1-14,,true,,513,138,19,19,322,0,165
1536995343421,3652,open login page,301,TLS Redirect,test media wiki 1-11,,true,,513,138,19,19,3652,0,3187
1536995346899,326,Open mediawiki homepage,301,TLS Redirect,test media wiki 1-20,,true,,506,131,19,19,326,0,162
1536995346562,705,Open mediawiki homepage,301,TLS Redirect,test media wiki 1-17,,true,,506,131,19,19,705,0,142
1536995343997,3286,open login page,301,TLS Redirect,test media wiki 1-5,,true,,513,138,19,19,3286,0,3146
1536995344018,3313,open login page,301,TLS Redirect,test media wiki 1-2,,true,,513,138,19,19,3313,0,3157
1536995347035,316,open create account page,301,TLS Redirect,test media wiki 1-16,,true,,514,139,19,19,316,0,153
1536995347047,322,Open mediawiki homepage,301,TLS Redirect,test media wiki 1-14,,true,,506,131,19,19,322,0,162
1536995347074,347,Open mediawiki homepage,301,TLS Redirect,test media wiki 1-11,,true,,506,131,19,19,347,0,165
1536995344078,3368,open create account page,301,TLS Redirect,test media wiki 1-15,,true,,514,139,19,19,3368,0,3171
1536995344203,3339,open login page,301,TLS Redirect,test media wiki 1-10,,true,,513,138,19,19,3339,0,3156
1536995344188,3358,open create account page,301,TLS Redirect,test media wiki 1-4,,true,,514,139,19,19,3358,0,3171
1536995347225,348,open create account page,301,TLS Redirect,test media wiki 1-20,,true,,514,139,19,19,348,0,174
1536995347267,356,open create account page,301,TLS Redirect,test media wiki 1-17,,true,,514,139,19,19,356,0,225
1536995347283,348,Open mediawiki homepage,301,TLS Redirect,test media wiki 1-5,,true,,506,131,19,19,348,0,214
1536995347422,351,open create account page,301,TLS Redirect,test media wiki 1-11,,true,,514,139,19,19,351,0,160
1536995347623,383,open login page,301,TLS Redirect,test media wiki 1-17,,true,,513,138,19,19,383,0,199
1536995344350,3676,open create account page,301,TLS Redirect,test media wiki 1-6,,true,,514,139,19,19,3676,0,3190
1536995344714,3353,open create account page,301,TLS Redirect,test media wiki 1-12,,true,,514,139,19,19,3353,0,3198
1536995347773,344,open login page,301,TLS Redirect,test media wiki 1-11,,true,,513,138,19,19,344,0,204
1536995347446,711,open login page,301,TLS Redirect,test media wiki 1-15,,true,,513,138,19,19,711,0,143
1536995347369,849,open create account page,301,TLS Redirect,test media wiki 1-14,,true,,514,139,19,19,849,0,181
1536995347543,731,Open mediawiki homepage,301,TLS Redirect,test media wiki 1-10,,true,,506,131,19,19,731,0,148
1536995348007,310,Open mediawiki homepage,301,TLS Redirect,test media wiki 1-17,,true,,506,131,19,19,310,0,141
1536995347573,773,open login page,301,TLS Redirect,test media wiki 1-20,,true,,513,138,19,19,773,0,161
1536995348027,334,open login page,301,TLS Redirect,test media wiki 1-6,,true,,513,138,19,19,334,0,190
1536995348068,341,open login page,301,TLS Redirect,test media wiki 1-12,,true,,513,138,19,19,341,0,176
1536995348157,347,Open mediawiki homepage,301,TLS Redirect,test media wiki 1-15,,true,,506,131,19,19,347,0,165
1536995348218,363,open login page,301,TLS Redirect,test media wiki 1-14,,true,,513,138,19,19,363,0,145
1536995345247,3380,open login page,301,TLS Redirect,test media wiki 1-13,,true,,513,138,19,19,3380,0,3172
1536995348361,390,Open mediawiki homepage,301,TLS Redirect,test media wiki 1-6,,true,,506,131,19,19,390,0,218
1536995347546,1232,open login page,301,TLS Redirect,test media wiki 1-4,,true,,513,138,19,19,1232,0,146
1536995348505,377,open create account page,301,TLS Redirect,test media wiki 1-15,,true,,514,139,19,19,377,0,158
1536995348582,340,Open mediawiki homepage,301,TLS Redirect,test media wiki 1-14,,true,,506,131,19,19,340,0,177
1536995348118,822,Open mediawiki homepage,301,TLS Redirect,test media wiki 1-11,,true,,506,131,19,19,822,0,167
1536995348752,355,open create account page,301,TLS Redirect,test media wiki 1-6,,true,,514,139,19,19,355,0,161
1536995348884,370,open login page,301,TLS Redirect,test media wiki 1-15,,true,,513,138,19,19,370,0,173
1536995349107,367,open login page,301,TLS Redirect,test media wiki 1-6,,true,,513,138,19,19,367,0,178
1536995348779,839,Open mediawiki homepage,301,TLS Redirect,test media wiki 1-4,,true,,506,131,19,19,839,0,189
1536995349254,391,Open mediawiki homepage,301,TLS Redirect,test media wiki 1-15,,true,,506,131,19,19,391,0,207
1536995348410,1514,Open mediawiki homepage,301,TLS Redirect,test media wiki 1-12,,true,,506,131,19,19,1514,0,208
1536995349475,789,Open mediawiki homepage,301,TLS Redirect,test media wiki 1-6,,true,,506,131,19,19,789,0,177
1536995349925,376,open create account page,301,TLS Redirect,test media wiki 1-12,,true,,514,139,19,19,376,0,201
1536995348941,1369,open create account page,301,TLS Redirect,test media wiki 1-11,,true,,514,139,19,19,1369,0,175
1536995346694,3710,Open mediawiki homepage,301,TLS Redirect,test media wiki 1-8,,true,,506,131,19,19,3710,0,3174
1536995349618,830,open create account page,301,TLS Redirect,test media wiki 1-4,,true,,514,139,19,19,830,0,166
1536995350302,376,open login page,301,TLS Redirect,test media wiki 1-12,,true,,513,138,19,19,376,0,223
1536995350310,373,open login page,301,TLS Redirect,test media wiki 1-11,,true,,513,138,19,19,373,0,221
1536995347332,3366,Open mediawiki homepage,301,TLS Redirect,test media wiki 1-2,,true,,506,131,19,19,3366,0,3215
1536995350405,362,open create account page,301,TLS Redirect,test media wiki 1-8,,true,,514,139,19,19,362,0,190
1536995347632,3368,open create account page,301,TLS Redirect,test media wiki 1-5,,true,,514,139,19,19,3368,0,3178
1536995350679,416,Open mediawiki homepage,301,TLS Redirect,test media wiki 1-12,,true,,506,131,19,19,416,0,194
1536995349645,1455,open create account page,301,TLS Redirect,test media wiki 1-15,,true,,514,139,19,19,1455,0,182
1536995350700,416,open create account page,301,TLS Redirect,test media wiki 1-2,,true,,514,139,19,19,416,0,188
1536995350264,904,open create account page,301,TLS Redirect,test media wiki 1-6,,true,,514,139,19,19,904,0,204
1536995351095,336,open create account page,301,TLS Redirect,test media wiki 1-12,,true,,514,139,19,19,336,0,170
1536995351100,354,open login page,301,TLS Redirect,test media wiki 1-15,,true,,513,138,19,19,354,0,180
1536995350684,846,Open mediawiki homepage,301,TLS Redirect,test media wiki 1-11,,true,,506,131,19,19,846,0,191
1536995348275,3348,open create account page,301,TLS Redirect,test media wiki 1-10,,true,,514,139,19,19,3348,0,3173
1536995350767,862,open login page,301,TLS Redirect,test media wiki 1-8,,true,,513,138,19,19,862,0,192
1536995348318,3352,open create account page,301,TLS Redirect,test media wiki 1-17,,true,,514,139,19,19,3352,0,3176
1536995351431,349,open login page,301,TLS Redirect,test media wiki 1-12,,true,,513,138,19,19,349,0,169
1536995351624,331,open login page,301,TLS Redirect,test media wiki 1-10,,true,,513,138,19,19,331,0,166
1536995348347,3652,Open mediawiki homepage,301,TLS Redirect,test media wiki 1-20,,true,,506,131,19,19,3652,0,3162
1536995351671,351,open login page,301,TLS Redirect,test media wiki 1-17,,true,,513,138,19,19,351,0,170
1536995348922,3327,open create account page,301,TLS Redirect,test media wiki 1-14,,true,,514,139,19,19,3327,0,3159
1536995351455,800,Open mediawiki homepage,301,TLS Redirect,test media wiki 1-15,,true,,506,131,19,19,800,0,176
1536995352000,312,open create account page,301,TLS Redirect,test media wiki 1-20,,true,,514,139,19,19,312,0,161
1536995351002,1316,open login page,301,TLS Redirect,test media wiki 1-5,,true,,513,138,19,19,1316,0,173
1536995352022,300,Open mediawiki homepage,301,TLS Redirect,test media wiki 1-17,,true,,506,131,19,19,300,0,154
1536995351629,741,Open mediawiki homepage,301,TLS Redirect,test media wiki 1-8,,true,,506,131,19,19,741,0,165
1536995352255,250,open create account page,301,TLS Redirect,test media wiki 1-15,,true,,514,139,19,19,250,0,123
1536995351116,1434,open login page,301,TLS Redirect,test media wiki 1-2,,true,,513,138,19,19,1434,0,188
1536995348628,3924,Open mediawiki homepage,301,TLS Redirect,test media wiki 1-13,,true,,506,131,19,19,3924,0,3173
1536995352313,275,open login page,301,TLS Redirect,test media wiki 1-20,,true,,513,138,18,18,275,0,151
1536995352322,273,open create account page,301,TLS Redirect,test media wiki 1-17,,true,,514,139,18,18,273,0,148
1536995352318,280,Open mediawiki homepage,301,TLS Redirect,test media wiki 1-5,,true,,506,131,18,18,280,0,152
1536995352371,255,open create account page,301,TLS Redirect,test media wiki 1-8,,true,,514,139,18,18,255,0,123
1536995351955,701,Open mediawiki homepage,301,TLS Redirect,test media wiki 1-10,,true,,506,131,18,18,701,0,148
1536995352506,300,open login page,301,TLS Redirect,test media wiki 1-15,,true,,513,138,18,18,300,0,137
1536995352550,273,Open mediawiki homepage,301,TLS Redirect,test media wiki 1-2,,true,,506,131,18,18,273,0,119
1536995352588,266,Open mediawiki homepage,301,TLS Redirect,test media wiki 1-20,,true,,506,131,18,18,266,0,118
1536995352596,263,open login page,301,TLS Redirect,test media wiki 1-17,,true,,513,138,17,17,263,0,122
1536995352627,262,open login page,301,TLS Redirect,test media wiki 1-8,,true,,513,138,17,17,262,0,146
1536995352656,305,open create account page,301,TLS Redirect,test media wiki 1-10,,true,,514,139,17,17,305,0,161
1536995352806,272,Open mediawiki homepage,301,TLS Redirect,test media wiki 1-15,,true,,506,131,17,17,272,0,126
1536995352824,297,open create account page,301,TLS Redirect,test media wiki 1-2,,true,,514,139,17,17,297,0,142
1536995352890,273,Open mediawiki homepage,301,TLS Redirect,test media wiki 1-8,,true,,506,131,17,17,273,0,142
1536995352961,298,open login page,301,TLS Redirect,test media wiki 1-10,,true,,513,138,17,17,298,0,154
1536995353079,283,open create account page,301,TLS Redirect,test media wiki 1-15,,true,,514,139,17,17,283,0,150
1536995353163,293,open create account page,301,TLS Redirect,test media wiki 1-8,,true,,514,139,17,17,293,0,140
1536995353259,281,Open mediawiki homepage,301,TLS Redirect,test media wiki 1-10,,true,,506,131,17,17,281,0,143
1536995352860,682,Open mediawiki homepage,301,TLS Redirect,test media wiki 1-17,,true,,506,131,16,16,682,0,132
1536995343943,9620,open create account page,301,TLS Redirect,test media wiki 1-18,,true,,514,139,16,16,9620,0,9166
1536995352598,1119,open create account page,301,TLS Redirect,test media wiki 1-5,,true,,514,139,16,16,1119,0,128
1536995350448,3275,open login page,301,TLS Redirect,test media wiki 1-4,,true,,513,138,16,16,3275,0,3146
1536995353457,270,open login page,301,TLS Redirect,test media wiki 1-8,,true,,513,138,16,16,270,0,141
1536995344532,9295,Open mediawiki homepage,301,TLS Redirect,test media wiki 1-7,,true,,506,131,16,16,9295,0,9154
1536995353565,297,open login page,301,TLS Redirect,test media wiki 1-18,,true,,513,138,16,16,297,0,132
1536995344625,9338,open login page,301,TLS Redirect,test media wiki 1-19,,true,,513,138,16,16,9338,0,9170
1536995353362,650,open login page,301,TLS Redirect,test media wiki 1-15,,true,,513,138,16,16,650,0,128
1536995353727,308,Open mediawiki homepage,301,TLS Redirect,test media wiki 1-8,,true,,506,131,16,16,308,0,173
1536995353827,280,open create account page,301,TLS Redirect,test media wiki 1-7,,true,,514,139,16,16,280,0,155
1536995353861,267,Open mediawiki homepage,301,TLS Redirect,test media wiki 1-18,,true,,506,131,16,16,267,0,140
1536995353542,685,open create account page,301,TLS Redirect,test media wiki 1-17,,true,,514,139,16,16,685,0,135
1536995353963,271,Open mediawiki homepage,301,TLS Redirect,test media wiki 1-19,,true,,506,131,16,16,271,0,120
1536995353121,1206,open login page,301,TLS Redirect,test media wiki 1-2,,true,,513,138,16,16,1206,0,144
1536995354107,290,open login page,301,TLS Redirect,test media wiki 1-7,,true,,513,138,16,16,290,0,142
1536995351168,3293,open login page,301,TLS Redirect,test media wiki 1-6,,true,,513,138,16,16,3293,0,3160
1536995353717,774,open login page,301,TLS Redirect,test media wiki 1-5,,true,,513,138,16,16,774,0,178
1536995354227,292,open login page,301,TLS Redirect,test media wiki 1-17,,true,,513,138,16,16,292,0,166
1536995354234,291,open create account page,301,TLS Redirect,test media wiki 1-19,,true,,514,139,16,16,291,0,161
1536995354326,313,Open mediawiki homepage,301,TLS Redirect,test media wiki 1-2,,true,,506,131,16,16,313,0,131
1536995354011,682,Open mediawiki homepage,301,TLS Redirect,test media wiki 1-15,,true,,506,131,16,16,682,0,125
1536995345084,9678,open login page,301,TLS Redirect,test media wiki 1-9,,true,,513,138,16,16,9678,0,9150
1536995354461,398,Open mediawiki homepage,301,TLS Redirect,test media wiki 1-6,,true,,506,131,16,16,398,0,183
1536995354693,415,open create account page,301,TLS Redirect,test media wiki 1-15,,true,,514,139,16,16,415,0,196
1536995351780,3383,Open mediawiki homepage,301,TLS Redirect,test media wiki 1-12,,true,,506,131,16,16,3383,0,3189
1536995354860,389,open create account page,301,TLS Redirect,test media wiki 1-6,,true,,514,139,16,16,389,0,199
1536995351531,3724,open create account page,301,TLS Redirect,test media wiki 1-11,,true,,514,139,16,16,3724,0,3232
1536995355162,387,open create account page,301,TLS Redirect,test media wiki 1-12,,true,,514,139,16,16,387,0,194
1536995355254,407,open login page,301,TLS Redirect,test media wiki 1-11,,true,,513,138,16,16,407,0,196
1536995352249,3427,open login page,301,TLS Redirect,test media wiki 1-14,,true,,513,138,16,16,3427,0,3207
1536995346473,9413,Open mediawiki homepage,301,TLS Redirect,test media wiki 1-3,,true,,506,131,16,16,9413,0,9233
1536995355675,352,Open mediawiki homepage,301,TLS Redirect,test media wiki 1-14,,true,,506,131,16,16,352,0,180
1536995355887,290,open create account page,301,TLS Redirect,test media wiki 1-3,,true,,514,139,16,16,290,0,158
1536995356027,238,open create account page,301,TLS Redirect,test media wiki 1-14,,true,,514,139,16,16,238,0,127
1536995356177,172,open login page,301,TLS Redirect,test media wiki 1-3,,true,,513,138,16,16,172,0,96
1536995355550,816,open login page,301,TLS Redirect,test media wiki 1-12,,true,,513,138,16,16,816,0,221
1536995356266,183,open login page,301,TLS Redirect,test media wiki 1-14,,true,,513,138,16,16,183,0,76
1536995356350,205,Open mediawiki homepage,301,TLS Redirect,test media wiki 1-3,,true,,506,131,16,16,205,0,100
1536995347351,9215,open login page,301,TLS Redirect,test media wiki 1-16,,true,,513,138,16,16,9215,0,9108
1536995356367,209,Open mediawiki homepage,301,TLS Redirect,test media wiki 1-12,,true,,506,131,16,16,209,0,98
1536995356449,224,Open mediawiki homepage,301,TLS Redirect,test media wiki 1-14,,true,,506,131,16,16,224,0,99
1536995356556,250,open create account page,301,TLS Redirect,test media wiki 1-3,,true,,514,139,16,16,250,0,125
1536995356566,245,Open mediawiki homepage,301,TLS Redirect,test media wiki 1-16,,true,,506,131,16,16,244,0,117
1536995356576,285,open create account page,301,TLS Redirect,test media wiki 1-12,,true,,514,139,16,16,285,0,129
1536995356673,242,open create account page,301,TLS Redirect,test media wiki 1-14,,true,,514,139,16,16,242,0,116
1536995353722,3265,Open mediawiki homepage,301,TLS Redirect,test media wiki 1-4,,true,,506,131,16,16,3265,0,3139
1536995356806,242,open login page,301,TLS Redirect,test media wiki 1-3,,true,,513,138,16,16,242,0,124
1536995356811,252,open create account page,301,TLS Redirect,test media wiki 1-16,,true,,514,139,16,16,251,0,130
1536995354491,2598,Open mediawiki homepage,301,TLS Redirect,test media wiki 1-5,,true,,506,131,16,16,2598,0,195
1536995356861,254,open login page,301,TLS Redirect,test media wiki 1-12,,true,,513,138,16,16,254,0,125
1536995356915,263,open login page,301,TLS Redirect,test media wiki 1-14,,true,,513,138,16,16,263,0,126
1536995356988,268,open create account page,301,TLS Redirect,test media wiki 1-4,,true,,514,139,16,16,268,0,130
1536995354036,3257,open create account page,301,TLS Redirect,test media wiki 1-8,,true,,514,139,16,16,3257,0,3124
1536995357048,266,Open mediawiki homepage,301,TLS Redirect,test media wiki 1-3,,true,,506,131,16,16,266,0,136
1536995357063,263,open login page,301,TLS Redirect,test media wiki 1-16,,true,,513,138,16,16,263,0,134
1536995357089,254,open create account page,301,TLS Redirect,test media wiki 1-5,,true,,514,139,16,16,254,0,126
1536995357115,272,Open mediawiki homepage,301,TLS Redirect,test media wiki 1-12,,true,,506,131,16,16,272,0,135
1536995354128,3274,open create account page,301,TLS Redirect,test media wiki 1-18,,true,,514,139,16,16,3274,0,3143
1536995357178,263,Open mediawiki homepage,301,TLS Redirect,test media wiki 1-14,,true,,506,131,16,16,263,0,129
1536995357326,289,Open mediawiki homepage,301,TLS Redirect,test media wiki 1-16,,true,,506,131,16,16,289,0,125
1536995357343,292,open login page,301,TLS Redirect,test media wiki 1-5,,true,,513,138,16,16,292,0,133
1536995357387,281,open create account page,301,TLS Redirect,test media wiki 1-12,,true,,514,139,16,16,281,0,135
1536995354398,3276,Open mediawiki homepage,301,TLS Redirect,test media wiki 1-7,,true,,506,131,16,16,3276,0,3126
1536995357441,316,open create account page,301,TLS Redirect,test media wiki 1-14,,true,,514,139,16,16,316,0,163
1536995354525,3306,open login page,301,TLS Redirect,test media wiki 1-19,,true,,513,138,16,16,3306,0,3150
1536995354640,3307,open create account page,301,TLS Redirect,test media wiki 1-2,,true,,514,139,16,16,3307,0,3173
1536995357314,645,open create account page,301,TLS Redirect,test media wiki 1-3,,true,,514,139,16,16,645,0,131
1536995357669,294,open login page,301,TLS Redirect,test media wiki 1-12,,true,,513,138,16,16,294,0,161
1536995357675,293,open create account page,301,TLS Redirect,test media wiki 1-7,,true,,514,139,16,16,293,0,155
1536995357832,270,Open mediawiki homepage,301,TLS Redirect,test media wiki 1-19,,true,,506,131,16,16,270,0,132
1536995354519,3594,Open mediawiki homepage,301,TLS Redirect,test media wiki 1-17,,true,,506,131,16,16,3594,0,3156
1536995357947,241,open login page,301,TLS Redirect,test media wiki 1-2,,true,,513,138,15,15,241,0,141
1536995357963,241,Open mediawiki homepage,301,TLS Redirect,test media wiki 1-12,,true,,506,131,15,15,241,0,135
1536995357969,252,open login page,301,TLS Redirect,test media wiki 1-7,,true,,513,138,15,15,252,0,137
1536995357615,726,open create account page,301,TLS Redirect,test media wiki 1-16,,true,,514,139,15,15,726,0,148
1536995358103,247,open create account page,301,TLS Redirect,test media wiki 1-19,,true,,514,139,15,15,247,0,107
1536995355109,3302,open login page,301,TLS Redirect,test media wiki 1-15,,true,,513,138,15,15,3302,0,3133
1536995358189,314,Open mediawiki homepage,301,TLS Redirect,test media wiki 1-2,,true,,506,131,15,15,314,0,151
1536995358204,301,open create account page,301,TLS Redirect,test media wiki 1-12,,true,,514,139,14,14,301,0,142
1536995358221,293,Open mediawiki homepage,301,TLS Redirect,test media wiki 1-7,,true,,506,131,14,14,293,0,134
1536995355249,3298,open login page,301,TLS Redirect,test media wiki 1-6,,true,,513,138,14,14,3298,0,3166
1536995358412,274,Open mediawiki homepage,301,TLS Redirect,test media wiki 1-15,,true,,506,131,14,14,274,0,126
1536995357636,1172,Open mediawiki homepage,301,TLS Redirect,test media wiki 1-5,,true,,506,131,14,14,1172,0,140
1536995358505,312,open login page,301,TLS Redirect,test media wiki 1-12,,true,,513,138,14,14,312,0,144
1536995358514,316,open create account page,301,TLS Redirect,test media wiki 1-7,,true,,514,139,14,14,316,0,144
1536995358547,329,Open mediawiki homepage,301,TLS Redirect,test media wiki 1-6,,true,,506,131,14,14,329,0,152
1536995358682,332,open create account page,301,TLS Redirect,test media wiki 1-15,,true,,514,139,14,14,332,0,173
1536995358803,280,open create account page,301,TLS Redirect,test media wiki 1-5,,true,,514,139,14,14,280,0,127
1536995358813,278,Open mediawiki homepage,301,TLS Redirect,test media wiki 1-12,,true,,506,131,14,14,278,0,124
1536995358350,751,open login page,301,TLS Redirect,test media wiki 1-19,,true,,513,138,14,14,751,0,155
1536995358826,275,open login page,301,TLS Redirect,test media wiki 1-7,,true,,513,138,14,14,275,0,124
1536995358872,292,open create account page,301,TLS Redirect,test media wiki 1-6,,true,,514,139,14,14,292,0,152
1536995355662,3628,Open mediawiki homepage,301,TLS Redirect,test media wiki 1-11,,true,,506,131,14,14,3628,0,3169
1536995359015,312,open login page,301,TLS Redirect,test media wiki 1-15,,true,,513,138,14,14,312,0,140
1536995359092,277,open create account page,301,TLS Redirect,test media wiki 1-12,,true,,514,139,14,14,277,0,152
1536995359097,282,Open mediawiki homepage,301,TLS Redirect,test media wiki 1-19,,true,,506,131,14,14,282,0,157
1536995359101,288,Open mediawiki homepage,301,TLS Redirect,test media wiki 1-7,,true,,506,131,14,14,288,0,157
1536995359164,327,open login page,301,TLS Redirect,test media wiki 1-6,,true,,513,138,14,14,327,0,173
1536995358342,1261,open login page,301,TLS Redirect,test media wiki 1-16,,true,,513,138,14,14,1261,0,161
1536995359327,274,Open mediawiki homepage,301,TLS Redirect,test media wiki 1-15,,true,,506,131,14,14,274,0,140
1536995359369,309,open login page,301,TLS Redirect,test media wiki 1-12,,true,,513,138,13,13,309,0,154
1536995359379,305,open create account page,301,TLS Redirect,test media wiki 1-19,,true,,514,139,13,13,305,0,148
1536995359390,298,open create account page,301,TLS Redirect,test media wiki 1-7,,true,,514,139,13,13,298,0,144
1536995359083,717,open login page,301,TLS Redirect,test media wiki 1-5,,true,,513,138,13,13,717,0,140
1536995359684,346,open login page,301,TLS Redirect,test media wiki 1-19,,true,,513,138,13,13,346,0,184
1536995359801,358,Open mediawiki homepage,301,TLS Redirect,test media wiki 1-5,,true,,506,131,13,13,358,0,161
1536995357257,3314,open login page,301,TLS Redirect,test media wiki 1-4,,true,,513,138,13,13,3314,0,3132
1536995357294,3378,open login page,301,TLS Redirect,test media wiki 1-8,,true,,513,138,13,13,3378,0,3199
1536995357403,3662,open login page,301,TLS Redirect,test media wiki 1-18,,true,,513,138,13,13,3662,0,3172
1536995357758,3350,open login page,301,TLS Redirect,test media wiki 1-14,,true,,513,138,13,13,3350,0,3196
1536995360159,1137,open create account page,301,TLS Redirect,test media wiki 1-5,,true,,514,139,13,13,1137,0,126
1536995360567,759,Open mediawiki homepage,301,TLS Redirect,test media wiki 1-4,,true,,506,131,13,13,759,0,150
1536995361060,412,Open mediawiki homepage,301,TLS Redirect,test media wiki 1-18,,true,,506,131,13,13,412,0,226
1536995357960,3689,open login page,301,TLS Redirect,test media wiki 1-3,,true,,513,138,13,13,3689,0,3161
1536995361327,379,open create account page,301,TLS Redirect,test media wiki 1-4,,true,,514,139,13,13,379,0,189
1536995361706,870,open login page,301,TLS Redirect,test media wiki 1-4,,true,,513,138,13,13,870,0,193
1536995359285,3639,open create account page,301,TLS Redirect,test media wiki 1-11,,true,,514,139,13,13,3639,0,3170
1536995362577,361,Open mediawiki homepage,301,TLS Redirect,test media wiki 1-4,,true,,506,131,13,13,361,0,192
1536995360030,3432,Open mediawiki homepage,301,TLS Redirect,test media wiki 1-19,,true,,506,131,12,12,3432,0,3209
1536995359598,3976,Open mediawiki homepage,301,TLS Redirect,test media wiki 1-16,,true,,506,131,12,12,3976,0,3188
1536995363462,316,open create account page,301,TLS Redirect,test media wiki 1-19,,true,,514,139,12,12,316,0,170
1536995360667,3284,Open mediawiki homepage,301,TLS Redirect,test media wiki 1-8,,true,,506,131,12,12,3284,0,3154
1536995354762,9302,Open mediawiki homepage,301,TLS Redirect,test media wiki 1-9,,true,,506,131,12,12,9302,0,9161
1536995364065,324,open create account page,301,TLS Redirect,test media wiki 1-9,,true,,514,139,12,12,324,0,143
1536995361103,3317,Open mediawiki homepage,301,TLS Redirect,test media wiki 1-14,,true,,506,131,12,12,3317,0,3141
1536995361297,3303,open login page,301,TLS Redirect,test media wiki 1-5,,true,,513,138,12,12,3303,0,3162
1536995364389,325,open login page,301,TLS Redirect,test media wiki 1-9,,true,,513,138,12,12,325,0,156
1536995364427,315,open create account page,301,TLS Redirect,test media wiki 1-14,,true,,514,139,12,12,315,0,144
1536995361473,3328,open create account page,301,TLS Redirect,test media wiki 1-18,,true,,514,139,12,12,3328,0,3143
1536995364606,320,Open mediawiki homepage,301,TLS Redirect,test media wiki 1-5,,true,,506,131,12,12,320,0,195
1536995361645,3291,Open mediawiki homepage,301,TLS Redirect,test media wiki 1-3,,true,,506,131,12,12,3290,0,3164
1536995364714,264,Open mediawiki homepage,301,TLS Redirect,test media wiki 1-9,,true,,506,131,12,12,264,0,141
1536995364742,261,open login page,301,TLS Redirect,test media wiki 1-14,,true,,513,138,12,12,261,0,138
1536995364808,305,open login page,301,TLS Redirect,test media wiki 1-18,,true,,513,138,12,12,305,0,123
1536995364926,333,open create account page,301,TLS Redirect,test media wiki 1-5,,true,,514,139,12,12,333,0,185
1536995364942,324,open create account page,301,TLS Redirect,test media wiki 1-3,,true,,514,139,12,12,324,0,173
1536995364978,295,open create account page,301,TLS Redirect,test media wiki 1-9,,true,,514,139,12,12,295,0,149
1536995365003,276,Open mediawiki homepage,301,TLS Redirect,test media wiki 1-14,,true,,506,131,12,12,276,0,130
1536995365260,325,open login page,301,TLS Redirect,test media wiki 1-5,,true,,513,138,11,11,325,0,189
1536995359492,6093,Open mediawiki homepage,301,TLS Redirect,test media wiki 1-6,,true,,506,131,11,11,6093,0,3185
1536995365113,772,Open mediawiki homepage,301,TLS Redirect,test media wiki 1-18,,true,,506,131,11,11,772,0,147
1536995365585,361,Open mediawiki homepage,301,TLS Redirect,test media wiki 1-5,,true,,506,131,11,11,361,0,138
1536995365592,374,open create account page,301,TLS Redirect,test media wiki 1-6,,true,,514,139,10,10,374,0,141
1536995362925,3681,open login page,301,TLS Redirect,test media wiki 1-11,,true,,513,138,10,10,3681,0,3197
1536995363574,3409,open create account page,301,TLS Redirect,test media wiki 1-16,,true,,514,139,10,10,3409,0,3196
1536995363784,3361,open login page,301,TLS Redirect,test media wiki 1-19,,true,,513,138,10,10,3361,0,3206
1536995363957,3379,open create account page,301,TLS Redirect,test media wiki 1-8,,true,,514,139,10,10,3379,0,3159
1536995366989,383,open login page,301,TLS Redirect,test media wiki 1-16,,true,,513,138,10,10,383,0,144
1536995367145,434,Open mediawiki homepage,301,TLS Redirect,test media wiki 1-19,,true,,506,131,10,10,434,0,234
1536995367373,451,Open mediawiki homepage,301,TLS Redirect,test media wiki 1-16,,true,,506,131,9,9,451,0,210
1536995365274,3268,open login page,301,TLS Redirect,test media wiki 1-9,,true,,513,138,8,8,3268,0,3115
1536995365266,3296,open login page,301,TLS Redirect,test media wiki 1-3,,true,,513,138,8,8,3296,0,3127
1536995368542,301,Open mediawiki homepage,301,TLS Redirect,test media wiki 1-9,,true,,506,131,8,8,301,0,156
1536995359678,9324,Open mediawiki homepage,301,TLS Redirect,test media wiki 1-12,,true,,506,131,8,8,9324,0,9132
1536995359688,9345,open login page,301,TLS Redirect,test media wiki 1-7,,true,,513,138,7,7,9345,0,9166
1536995365885,3293,open create account page,301,TLS Redirect,test media wiki 1-18,,true,,514,139,7,7,3293,0,3153
1536995367336,1843,open login page,301,TLS Redirect,test media wiki 1-8,,true,,513,138,7,7,1843,0,185
1536995365966,3277,open login page,301,TLS Redirect,test media wiki 1-6,,true,,513,138,7,7,3277,0,3127
1536995369040,275,Open mediawiki homepage,301,TLS Redirect,test media wiki 1-7,,true,,506,131,7,7,275,0,121
1536995369178,312,open login page,301,TLS Redirect,test media wiki 1-18,,true,,513,138,7,7,312,0,151
1536995369179,344,Open mediawiki homepage,301,TLS Redirect,test media wiki 1-8,,true,,506,131,7,7,344,0,155
1536995369316,293,open create account page,301,TLS Redirect,test media wiki 1-7,,true,,514,139,6,6,293,0,156
1536995369490,264,Open mediawiki homepage,301,TLS Redirect,test media wiki 1-18,,true,,506,131,6,6,264,0,118
1536995366613,3567,Open mediawiki homepage,301,TLS Redirect,test media wiki 1-11,,true,,506,131,6,6,3567,0,3146
1536995369610,790,open login page,301,TLS Redirect,test media wiki 1-7,,true,,513,138,6,6,790,0,145
1536995369243,1307,Open mediawiki homepage,301,TLS Redirect,test media wiki 1-6,,true,,506,131,6,6,1307,0,169
1536995370550,389,open create account page,301,TLS Redirect,test media wiki 1-6,,true,,514,139,6,6,389,0,169
1536995370939,296,open login page,301,TLS Redirect,test media wiki 1-6,,true,,513,138,6,6,296,0,145
1536995371236,359,Open mediawiki homepage,301,TLS Redirect,test media wiki 1-6,,true,,506,131,6,6,359,0,193
1536995368562,3707,Open mediawiki homepage,301,TLS Redirect,test media wiki 1-3,,true,,506,131,5,5,3707,0,3218
1536995368844,3684,open create account page,301,TLS Redirect,test media wiki 1-9,,true,,514,139,5,5,3683,0,3187
1536995372270,357,open create account page,301,TLS Redirect,test media wiki 1-3,,true,,514,139,5,5,357,0,210
1536995369755,3310,open create account page,301,TLS Redirect,test media wiki 1-18,,true,,514,139,5,5,3310,0,3185
1536995372528,722,open login page,301,TLS Redirect,test media wiki 1-9,,true,,513,138,5,5,722,0,138
1536995373065,335,open login page,301,TLS Redirect,test media wiki 1-18,,true,,513,138,5,5,335,0,183
1536995370182,3285,open create account page,301,TLS Redirect,test media wiki 1-11,,true,,514,139,5,5,3285,0,3137
1536995373250,306,Open mediawiki homepage,301,TLS Redirect,test media wiki 1-9,,true,,506,131,5,5,306,0,155
1536995373401,325,Open mediawiki homepage,301,TLS Redirect,test media wiki 1-18,,true,,506,131,5,5,325,0,147
1536995370400,3371,Open mediawiki homepage,301,TLS Redirect,test media wiki 1-7,,true,,506,131,4,4,3371,0,3175
1536995373467,347,open login page,301,TLS Redirect,test media wiki 1-11,,true,,513,138,4,4,347,0,141
1536995373556,331,open create account page,301,TLS Redirect,test media wiki 1-9,,true,,514,139,4,4,331,0,177
1536995372628,1265,open login page,301,TLS Redirect,test media wiki 1-3,,true,,513,138,4,4,1265,0,164
1536995373814,289,Open mediawiki homepage,301,TLS Redirect,test media wiki 1-11,,true,,506,131,4,4,289,0,123
1536995373888,3355,open login page,301,TLS Redirect,test media wiki 1-9,,true,,513,138,4,4,3355,0,3196
1536995373893,3373,Open mediawiki homepage,301,TLS Redirect,test media wiki 1-3,,true,,506,131,4,4,3373,0,3206
1536995373772,3616,open create account page,301,TLS Redirect,test media wiki 1-7,,true,,514,139,4,4,3616,0,3152
1536995377243,314,Open mediawiki homepage,301,TLS Redirect,test media wiki 1-9,,true,,506,131,4,4,314,0,155
1536995377266,349,open create account page,301,TLS Redirect,test media wiki 1-3,,true,,514,139,4,4,349,0,168
1536995374104,3687,open create account page,301,TLS Redirect,test media wiki 1-11,,true,,514,139,4,4,3687,0,3165
1536995377557,458,open create account page,301,TLS Redirect,test media wiki 1-9,,true,,514,139,4,4,458,0,231
1536995377389,780,open login page,301,TLS Redirect,test media wiki 1-7,,true,,513,138,4,4,780,0,161
1536995377615,890,open login page,301,TLS Redirect,test media wiki 1-3,,true,,513,138,4,4,890,0,214
1536995377791,962,open login page,301,TLS Redirect,test media wiki 1-11,,true,,513,138,4,4,962,0,243
1536995378169,828,Open mediawiki homepage,301,TLS Redirect,test media wiki 1-7,,true,,506,131,4,4,828,0,206
1536995378753,274,Open mediawiki homepage,301,TLS Redirect,test media wiki 1-11,,true,,506,131,3,3,274,0,164
1536995378506,741,Open mediawiki homepage,301,TLS Redirect,test media wiki 1-3,,true,,506,131,2,2,741,0,152
1536995378015,3256,open login page,301,TLS Redirect,test media wiki 1-9,,true,,513,138,2,2,3256,0,3134
1536995381271,433,Open mediawiki homepage,301,TLS Redirect,test media wiki 1-9,,true,,506,131,2,2,433,0,204
1536995381704,366,open create account page,301,TLS Redirect,test media wiki 1-9,,true,,514,139,2,2,366,0,207
1536995382070,763,open login page,301,TLS Redirect,test media wiki 1-9,,true,,513,138,2,2,763,0,146
1536995379248,4552,open create account page,301,TLS Redirect,test media wiki 1-3,,true,,514,139,2,2,4552,0,3236
1536995383801,345,open login page,301,TLS Redirect,test media wiki 1-3,,true,,513,138,2,2,345,0,160
1536995384146,347,Open mediawiki homepage,301,TLS Redirect,test media wiki 1-3,,true,,506,131,2,2,347,0,160
1536995384493,713,open create account page,301,TLS Redirect,test media wiki 1-3,,true,,514,139,2,2,713,0,139
1536995385207,336,open login page,301,TLS Redirect,test media wiki 1-3,,true,,513,138,2,2,336,0,131
1536995385543,330,Open mediawiki homepage,301,TLS Redirect,test media wiki 1-3,,true,,506,131,2,2,330,0,187
1536995382833,3659,Open mediawiki homepage,301,TLS Redirect,test media wiki 1-9,,true,,506,131,1,1,3659,0,3161
1536995386493,3428,open create account page,301,TLS Redirect,test media wiki 1-9,,true,,514,139,1,1,3428,0,3178
1536995389920,831,open login page,301,TLS Redirect,test media wiki 1-9,,true,,513,138,1,1,831,0,176
1536995390752,3326,Open mediawiki homepage,301,TLS Redirect,test media wiki 1-9,,true,,506,131,1,1,3326,0,3147
1536995394079,3251,open create account page,301,TLS Redirect,test media wiki 1-9,,true,,514,139,1,1,3251,0,3148
1536995397330,338,open login page,301,TLS Redirect,test media wiki 1-9,,true,,513,138,1,1,338,0,192
1536995397668,783,Open mediawiki homepage,301,TLS Redirect,test media wiki 1-9,,true,,506,131,1,1,783,0,170
